{
  "id": 204962,
  "label": null,
  "subname": "",
  "keywords": "chiodi, cavalli, sportivi, passeggiata, mondial",
  "abstractDescription": "",
  "description": "<p><strong>JC <br />\nChiodi per cavalli sportivi e da passeggiata<br />\n<br />\n</strong>Testa ampia e robusta per un'ottima tenuta.<br />\nLa lama fine non danneggia lo zoccolo.<br />\nLa forma della gola li rende adatti alla maggior parte dei tipi di ferri<br />\n<br />\nMarca: <strong>MONDIAL.</strong><br />\n<br />\n<strong> La serie JC comprende:</strong><br />\nJC00 - lunghezza 40 mm<br />\nJC0 - lunghezza 44 mm<br />\nJC1 - lunghezza 48 mm<br />\nJC2 - lunghezza 52 mm<br />\nJC3 - lunghezza 56 mm<br />\nJC4 - lunghezza 60 mm<br />\nJC5 - lunghezza 64 mm<br />\nJC6 - lunghezza 67 mm<br />\nJC7 - lunghezza 73 mm<br />\nJC8 - lunghezza 76 mm<br />\n<br />\n<br />\n<strong>CHIODI PER CAVALLI DA SELLA</strong><br />\nUtilizzati per cavalli da passeggiata e per cavalli che concorrono nelle diverse discipline sportive, questi chiodi assicurano un'ottima tenuta in tutte le situazioni e si adattano perfettamente sia ai vari tipi di ferri presenti sul mercato, sia alla conformazione degli zoccoli delle diverse razze equine.<br />\n<br />\n<br />\n<strong>DELLA FAMIGLIA CHIODI PER CAVALLI DA SELLA FANNO PARTE:</strong><br /> <strong>E</strong> - Chiodi per cavalli sportivi e da passeggiata<br /> <strong>ESL</strong> - Chiodi per cavalli sportivi e da passeggiata<br /> <strong>EX </strong>- Chiodi per cavalli sportivi e da passeggiata<br /> <strong>MX</strong> - Chiodi speciali per pareti sottili<br /> <strong>JC</strong> - Chiodi per cavalli sportivi e da passeggiata<br /> <strong>JCSL </strong>- Chiodi per cavalli sportivi e da passeggiata<br /> <strong>JCX</strong> - Chiodi per cavalli sportivi e da passeggiata<br /> <strong>JF</strong> - Chiodi per cavalli sportivi e da passeggiata stile francese<br /> <strong>VF</strong> - Chiodi per cavalli da passeggiata<br /> <strong>M</strong> - Chiodi per cavalli sportivi e da passeggiata stile tedesco<br /> <strong>CSTO </strong>- Chiodi per cavalli sportivi<br /><strong>BH</strong> - Chiodi per cavalli sportivi e da passeggiata stile autraliano</p>",
  "descriptionInPortal": "",
  "metaTitle": "Chiodi ferratura JC cavalli sportivi passeggiata",
  "brand": {
    "id": 73,
    "label": "Mondial",
    "escapeTime": {
      "id": 28,
      "label": "1-3 giorni"
    }
  },
  "iva": "22",
  "escapeTime": {
    "id": 25,
    "label": "Nessuno"
  },
  "variants": [
    {
      "id": 214978,
      "label": "JC00 40 mm - da 100 pz",
      "name": "JC00 40 mm - da 100 pz",
      "variantImages": [],
      "itemStocks": [
        {
          "id": 214979,
          "label": "2001 - Fuxia - M - ",
          "ean": "EAN111111",
          "quantity": 100,
          "features": [
            {
              "id": 226177,
              "label": "2001",
              "abbreviation": null
            },
            {
              "id": 226173,
              "label": "Fuxia",
              "abbreviation": "001"
            },
            {
              "id": 226179,
              "label": "M",
              "abbreviation": null
            }
          ]
        },
        {
          "id": 226171,
          "label": "S - Fuxia - ",
          "ean": "EAN222222",
          "quantity": 100,
          "features": [
            {
              "id": 226173,
              "label": "Fuxia",
              "abbreviation": "001"
            },
            {
              "id": 226181,
              "label": "S",
              "abbreviation": null
            }
          ]
        },
        {
          "id": 226172,
          "label": "S - Blu Oltremare - ",
          "ean": "EAN333333",
          "quantity": 100,
          "features": [
            {
              "id": 226175,
              "label": "Blu Oltremare",
              "abbreviation": "002"
            },
            {
              "id": 226181,
              "label": "S",
              "abbreviation": null
            }
          ]
        }
      ],
      "code": "MOJC00100",
      "amount": 80,
      "discount": 20,
      "finalAmount": 100,
      "freeShipping": false,
      "quantityPlateau": 0,
      "classOfGoods": [
        {
          "id": 565,
          "label": "Colore",
          "features": [
            {
              "id": 226175,
              "label": "Blu Oltremare",
              "abbreviation": "002"
            },
            {
              "id": 226173,
              "label": "Fuxia",
              "abbreviation": "001"
            }
          ]
        },
        {
          "id": 601,
          "label": "Anno",
          "features": [
            {
              "id": 226177,
              "label": "2001",
              "abbreviation": null
            }
          ]
        },
        {
          "id": 559,
          "label": "Taglia",
          "features": [
            {
              "id": 226179,
              "label": "M",
              "abbreviation": null
            },
            {
              "id": 226181,
              "label": "S",
              "abbreviation": null
            }
          ]
        }
      ]
    },
    {
      "id": 215146,
      "label": "JC8 76 mm - da 100 pz",
      "name": "JC8 76 mm - da 100 pz",
      "variantImages": [],
      "itemStocks": [
        {
          "id": 215147,
          "label": "",
          "ean": "",
          "quantity": 100,
          "features": []
        }
      ],
      "code": "MOJC8100",
      "amount": 0,
      "discount": 20,
      "finalAmount": 0,
      "freeShipping": false,
      "quantityPlateau": 0,
      "classOfGoods": []
    },
    {
      "id": 215076,
      "label": "JC3 56 mm - da 500 pz",
      "name": "JC3 56 mm - da 500 pz",
      "variantImages": [],
      "itemStocks": [
        {
          "id": 215077,
          "label": "",
          "ean": "",
          "quantity": 100,
          "features": []
        }
      ],
      "code": "MOJC3500",
      "amount": 0,
      "discount": 20,
      "finalAmount": 0,
      "freeShipping": false,
      "quantityPlateau": 0,
      "classOfGoods": []
    },
    {
      "id": 215139,
      "label": "JC7 73 mm - da 250 pz",
      "name": "JC7 73 mm - da 250 pz",
      "variantImages": [],
      "itemStocks": [
        {
          "id": 223750,
          "label": "Blu - ",
          "ean": "TODO",
          "quantity": 100,
          "features": [
            {
              "id": 223749,
              "label": "Blu",
              "abbreviation": ""
            }
          ]
        },
        {
          "id": 223757,
          "label": "Bordeaux - ",
          "ean": "TODO",
          "quantity": 100,
          "features": [
            {
              "id": 223756,
              "label": "Bordeaux",
              "abbreviation": ""
            }
          ]
        },
        {
          "id": 215140,
          "label": "",
          "ean": "",
          "quantity": 100,
          "features": []
        }
      ],
      "code": "MOJC7250",
      "amount": 0,
      "discount": 20,
      "finalAmount": 0,
      "freeShipping": false,
      "quantityPlateau": 0,
      "classOfGoods": [
        {
          "id": 565,
          "label": "Colore",
          "features": [
            {
              "id": 223749,
              "label": "Blu",
              "abbreviation": ""
            },
            {
              "id": 223756,
              "label": "Bordeaux",
              "abbreviation": ""
            }
          ]
        }
      ]
    },
    {
      "id": 215055,
      "label": "JC2 52 mm - da 500 pz",
      "name": "JC2 52 mm - da 500 pz",
      "variantImages": [],
      "itemStocks": [
        {
          "id": 223673,
          "label": "Blu - ",
          "ean": "TODO",
          "quantity": 100,
          "features": [
            {
              "id": 223672,
              "label": "Blu",
              "abbreviation": ""
            }
          ]
        },
        {
          "id": 223666,
          "label": "Rosso - ",
          "ean": "TODO",
          "quantity": 100,
          "features": [
            {
              "id": 223665,
              "label": "Rosso",
              "abbreviation": ""
            }
          ]
        },
        {
          "id": 215056,
          "label": "",
          "ean": "",
          "quantity": 100,
          "features": []
        },
        {
          "id": 223680,
          "label": "Verdone - ",
          "ean": "TODO",
          "quantity": 100,
          "features": [
            {
              "id": 223679,
              "label": "Verdone",
              "abbreviation": ""
            }
          ]
        }
      ],
      "code": "MOJC2500",
      "amount": 0,
      "discount": 20,
      "finalAmount": 0,
      "freeShipping": false,
      "quantityPlateau": 0,
      "classOfGoods": [
        {
          "id": 565,
          "label": "Colore",
          "features": [
            {
              "id": 223672,
              "label": "Blu",
              "abbreviation": ""
            },
            {
              "id": 223665,
              "label": "Rosso",
              "abbreviation": ""
            },
            {
              "id": 223679,
              "label": "Verdone",
              "abbreviation": ""
            }
          ]
        }
      ]
    },
    {
      "id": 215111,
      "label": "JC5 64 mm - da 250 pz",
      "name": "JC5 64 mm - da 250 pz",
      "variantImages": [],
      "itemStocks": [
        {
          "id": 215112,
          "label": "",
          "ean": "",
          "quantity": 100,
          "features": []
        }
      ],
      "code": "MOJC5250",
      "amount": 0,
      "discount": 20,
      "finalAmount": 0,
      "freeShipping": false,
      "quantityPlateau": 0,
      "classOfGoods": []
    },
    {
      "id": 215104,
      "label": "JC5 64 mm - da 100 pz",
      "name": "JC5 64 mm - da 100 pz",
      "variantImages": [],
      "itemStocks": [
        {
          "id": 215105,
          "label": "",
          "ean": "",
          "quantity": 100,
          "features": []
        }
      ],
      "code": "MOJC5100",
      "amount": 0,
      "discount": 20,
      "finalAmount": 0,
      "freeShipping": false,
      "quantityPlateau": 0,
      "classOfGoods": []
    },
    {
      "id": 215027,
      "label": "JC1 48 mm - da 250 pz",
      "name": "JC1 48 mm - da 250 pz",
      "variantImages": [],
      "itemStocks": [
        {
          "id": 215028,
          "label": "",
          "ean": "",
          "quantity": 100,
          "features": []
        }
      ],
      "code": "MOJC1250",
      "amount": 0,
      "discount": 20,
      "finalAmount": 0,
      "freeShipping": false,
      "quantityPlateau": 0,
      "classOfGoods": []
    },
    {
      "id": 215069,
      "label": "JC3 56 mm - da 250 pz",
      "name": "JC3 56 mm - da 250 pz",
      "variantImages": [],
      "itemStocks": [
        {
          "id": 215070,
          "label": "",
          "ean": "",
          "quantity": 100,
          "features": []
        }
      ],
      "code": "MOJC3250",
      "amount": 0,
      "discount": 20,
      "finalAmount": 0,
      "freeShipping": false,
      "quantityPlateau": 0,
      "classOfGoods": []
    },
    {
      "id": 215062,
      "label": "JC3 56 mm - da 100 pz",
      "name": "JC3 56 mm - da 100 pz",
      "variantImages": [],
      "itemStocks": [
        {
          "id": 223701,
          "label": "Verde - ",
          "ean": "TODO",
          "quantity": 100,
          "features": [
            {
              "id": 223700,
              "label": "Verde",
              "abbreviation": ""
            }
          ]
        },
        {
          "id": 223708,
          "label": "Bianco - ",
          "ean": "TODO",
          "quantity": 100,
          "features": [
            {
              "id": 223707,
              "label": "Bianco",
              "abbreviation": ""
            }
          ]
        },
        {
          "id": 223687,
          "label": "Rosso - ",
          "ean": "TODO",
          "quantity": 100,
          "features": [
            {
              "id": 223686,
              "label": "Rosso",
              "abbreviation": ""
            }
          ]
        },
        {
          "id": 223694,
          "label": "Blu - ",
          "ean": "TODO",
          "quantity": 100,
          "features": [
            {
              "id": 223693,
              "label": "Blu",
              "abbreviation": ""
            }
          ]
        },
        {
          "id": 215063,
          "label": "",
          "ean": "",
          "quantity": 100,
          "features": []
        },
        {
          "id": 223715,
          "label": "Nero - ",
          "ean": "TODO",
          "quantity": 100,
          "features": [
            {
              "id": 223714,
              "label": "Nero",
              "abbreviation": ""
            }
          ]
        }
      ],
      "code": "MOJC3100",
      "amount": 0,
      "discount": 20,
      "finalAmount": 0,
      "freeShipping": false,
      "quantityPlateau": 0,
      "classOfGoods": [
        {
          "id": 565,
          "label": "Colore",
          "features": [
            {
              "id": 223700,
              "label": "Verde",
              "abbreviation": ""
            },
            {
              "id": 223686,
              "label": "Rosso",
              "abbreviation": ""
            },
            {
              "id": 223707,
              "label": "Bianco",
              "abbreviation": ""
            },
            {
              "id": 223714,
              "label": "Nero",
              "abbreviation": ""
            },
            {
              "id": 223693,
              "label": "Blu",
              "abbreviation": ""
            }
          ]
        }
      ]
    },
    {
      "id": 215097,
      "label": "JC4 60 mm - da 500 pz",
      "name": "JC4 60 mm - da 500 pz",
      "variantImages": [],
      "itemStocks": [
        {
          "id": 215098,
          "label": "",
          "ean": "",
          "quantity": 100,
          "features": []
        },
        {
          "id": 223463,
          "label": "Blu - ",
          "ean": "TODO",
          "quantity": 100,
          "features": [
            {
              "id": 223462,
              "label": "Blu",
              "abbreviation": ""
            }
          ]
        },
        {
          "id": 223484,
          "label": "Rosso - ",
          "ean": "TODO",
          "quantity": 100,
          "features": [
            {
              "id": 223483,
              "label": "Rosso",
              "abbreviation": ""
            }
          ]
        },
        {
          "id": 223477,
          "label": "Nero - ",
          "ean": "TODO",
          "quantity": 100,
          "features": [
            {
              "id": 223476,
              "label": "Nero",
              "abbreviation": ""
            }
          ]
        },
        {
          "id": 223470,
          "label": "Verde - ",
          "ean": "TODO",
          "quantity": 100,
          "features": [
            {
              "id": 223469,
              "label": "Verde",
              "abbreviation": ""
            }
          ]
        }
      ],
      "code": "MOJC4500",
      "amount": 0,
      "discount": 20,
      "finalAmount": 0,
      "freeShipping": false,
      "quantityPlateau": 0,
      "classOfGoods": [
        {
          "id": 565,
          "label": "Colore",
          "features": [
            {
              "id": 223462,
              "label": "Blu",
              "abbreviation": ""
            },
            {
              "id": 223476,
              "label": "Nero",
              "abbreviation": ""
            },
            {
              "id": 223469,
              "label": "Verde",
              "abbreviation": ""
            },
            {
              "id": 223483,
              "label": "Rosso",
              "abbreviation": ""
            }
          ]
        }
      ]
    },
    {
      "id": 215132,
      "label": "JC7 73 mm - da 100 pz",
      "name": "JC7 73 mm - da 100 pz",
      "variantImages": [],
      "itemStocks": [
        {
          "id": 215133,
          "label": "",
          "ean": "",
          "quantity": 100,
          "features": []
        },
        {
          "id": 223407,
          "label": "Rosso - ",
          "ean": "TODO",
          "quantity": 100,
          "features": [
            {
              "id": 223406,
              "label": "Rosso",
              "abbreviation": ""
            }
          ]
        },
        {
          "id": 223400,
          "label": "Verde - ",
          "ean": "TODO",
          "quantity": 100,
          "features": [
            {
              "id": 223399,
              "label": "Verde",
              "abbreviation": ""
            }
          ]
        }
      ],
      "code": "MOJC7100",
      "amount": 0,
      "discount": 20,
      "finalAmount": 0,
      "freeShipping": false,
      "quantityPlateau": 0,
      "classOfGoods": [
        {
          "id": 565,
          "label": "Colore",
          "features": [
            {
              "id": 223399,
              "label": "Verde",
              "abbreviation": ""
            },
            {
              "id": 223406,
              "label": "Rosso",
              "abbreviation": ""
            }
          ]
        }
      ]
    },
    {
      "id": 215090,
      "label": "JC4 60 mm - da 250 pz",
      "name": "JC4 60 mm - da 250 pz",
      "variantImages": [],
      "itemStocks": [
        {
          "id": 220922,
          "label": "Blu - ",
          "ean": "TODO",
          "quantity": 100,
          "features": [
            {
              "id": 220921,
              "label": "Blu",
              "abbreviation": ""
            }
          ]
        },
        {
          "id": 220943,
          "label": "Rosso - ",
          "ean": "TODO",
          "quantity": 100,
          "features": [
            {
              "id": 220942,
              "label": "Rosso",
              "abbreviation": ""
            }
          ]
        },
        {
          "id": 220936,
          "label": "Nero - ",
          "ean": "TODO",
          "quantity": 100,
          "features": [
            {
              "id": 220935,
              "label": "Nero",
              "abbreviation": ""
            }
          ]
        },
        {
          "id": 215091,
          "label": "",
          "ean": "",
          "quantity": 100,
          "features": []
        },
        {
          "id": 220929,
          "label": "verde - ",
          "ean": "TODO",
          "quantity": 100,
          "features": [
            {
              "id": 220928,
              "label": "verde",
              "abbreviation": ""
            }
          ]
        }
      ],
      "code": "MOJC4250",
      "amount": 0,
      "discount": 20,
      "finalAmount": 0,
      "freeShipping": false,
      "quantityPlateau": 0,
      "classOfGoods": [
        {
          "id": 565,
          "label": "Colore",
          "features": [
            {
              "id": 220921,
              "label": "Blu",
              "abbreviation": ""
            },
            {
              "id": 220942,
              "label": "Rosso",
              "abbreviation": ""
            },
            {
              "id": 220928,
              "label": "verde",
              "abbreviation": ""
            },
            {
              "id": 220935,
              "label": "Nero",
              "abbreviation": ""
            }
          ]
        }
      ]
    },
    {
      "id": 215125,
      "label": "JC6 67 mm - da 250 pz",
      "name": "JC6 67 mm - da 250 pz",
      "variantImages": [],
      "itemStocks": [
        {
          "id": 215126,
          "label": "",
          "ean": "",
          "quantity": 100,
          "features": []
        }
      ],
      "code": "MOJC6250",
      "amount": 0,
      "discount": 20,
      "finalAmount": 0,
      "freeShipping": false,
      "quantityPlateau": 0,
      "classOfGoods": []
    },
    {
      "id": 215118,
      "label": "JC6 67 mm - da 100 pz",
      "name": "JC6 67 mm - da 100 pz",
      "variantImages": [],
      "itemStocks": [
        {
          "id": 223428,
          "label": "Verde - ",
          "ean": "TODO",
          "quantity": 100,
          "features": [
            {
              "id": 223427,
              "label": "Verde",
              "abbreviation": ""
            }
          ]
        },
        {
          "id": 223421,
          "label": "Nero - ",
          "ean": "TODO",
          "quantity": 100,
          "features": [
            {
              "id": 223420,
              "label": "Nero",
              "abbreviation": ""
            }
          ]
        },
        {
          "id": 223414,
          "label": "Blu - ",
          "ean": "TODO",
          "quantity": 100,
          "features": [
            {
              "id": 223413,
              "label": "Blu",
              "abbreviation": ""
            }
          ]
        },
        {
          "id": 223442,
          "label": "Rosso - ",
          "ean": "TODO",
          "quantity": 100,
          "features": [
            {
              "id": 223441,
              "label": "Rosso",
              "abbreviation": ""
            }
          ]
        },
        {
          "id": 215119,
          "label": "",
          "ean": "",
          "quantity": 100,
          "features": []
        },
        {
          "id": 223435,
          "label": "Bianco - ",
          "ean": "TODO",
          "quantity": 100,
          "features": [
            {
              "id": 223434,
              "label": "Bianco",
              "abbreviation": ""
            }
          ]
        },
        {
          "id": 223449,
          "label": "Grigio - ",
          "ean": "TODO",
          "quantity": 100,
          "features": [
            {
              "id": 223448,
              "label": "Grigio",
              "abbreviation": ""
            }
          ]
        },
        {
          "id": 223456,
          "label": "Bordeaux - ",
          "ean": "TODO",
          "quantity": 100,
          "features": [
            {
              "id": 223455,
              "label": "Bordeaux",
              "abbreviation": ""
            }
          ]
        }
      ],
      "code": "MOJC6100",
      "amount": 0,
      "discount": 20,
      "finalAmount": 0,
      "freeShipping": false,
      "quantityPlateau": 0,
      "classOfGoods": [
        {
          "id": 565,
          "label": "Colore",
          "features": [
            {
              "id": 223420,
              "label": "Nero",
              "abbreviation": ""
            },
            {
              "id": 223455,
              "label": "Bordeaux",
              "abbreviation": ""
            },
            {
              "id": 223434,
              "label": "Bianco",
              "abbreviation": ""
            },
            {
              "id": 223427,
              "label": "Verde",
              "abbreviation": ""
            },
            {
              "id": 223448,
              "label": "Grigio",
              "abbreviation": ""
            },
            {
              "id": 223413,
              "label": "Blu",
              "abbreviation": ""
            },
            {
              "id": 223441,
              "label": "Rosso",
              "abbreviation": ""
            }
          ]
        }
      ]
    },
    {
      "id": 215048,
      "label": "JC2 52 mm - da 250 pz",
      "name": "JC2 52 mm - da 250 pz",
      "variantImages": [],
      "itemStocks": [
        {
          "id": 215049,
          "label": "",
          "ean": "",
          "quantity": 100,
          "features": []
        }
      ],
      "code": "MOJC2250",
      "amount": 0,
      "discount": 20,
      "finalAmount": 0,
      "freeShipping": false,
      "quantityPlateau": 0,
      "classOfGoods": []
    },
    {
      "id": 215083,
      "label": "JC4 60 mm - da 100 pz",
      "name": "JC4 60 mm - da 100 pz",
      "variantImages": [],
      "itemStocks": [
        {
          "id": 220964,
          "label": "Bianco - ",
          "ean": "TODO",
          "quantity": 100,
          "features": [
            {
              "id": 220963,
              "label": "Bianco",
              "abbreviation": ""
            }
          ]
        },
        {
          "id": 215084,
          "label": "",
          "ean": "",
          "quantity": 100,
          "features": []
        },
        {
          "id": 220978,
          "label": "Rosso - ",
          "ean": "TODO",
          "quantity": 100,
          "features": [
            {
              "id": 220977,
              "label": "Rosso",
              "abbreviation": ""
            }
          ]
        },
        {
          "id": 220957,
          "label": "verde - ",
          "ean": "TODO",
          "quantity": 100,
          "features": [
            {
              "id": 220956,
              "label": "verde",
              "abbreviation": ""
            }
          ]
        },
        {
          "id": 220971,
          "label": "Nero - ",
          "ean": "TODO",
          "quantity": 100,
          "features": [
            {
              "id": 220970,
              "label": "Nero",
              "abbreviation": ""
            }
          ]
        },
        {
          "id": 220950,
          "label": "Blu - ",
          "ean": "TODO",
          "quantity": 100,
          "features": [
            {
              "id": 220949,
              "label": "Blu",
              "abbreviation": ""
            }
          ]
        }
      ],
      "code": "MOJC4100",
      "amount": 0,
      "discount": 20,
      "finalAmount": 0,
      "freeShipping": false,
      "quantityPlateau": 0,
      "classOfGoods": [
        {
          "id": 565,
          "label": "Colore",
          "features": [
            {
              "id": 220949,
              "label": "Blu",
              "abbreviation": ""
            },
            {
              "id": 220977,
              "label": "Rosso",
              "abbreviation": ""
            },
            {
              "id": 220956,
              "label": "verde",
              "abbreviation": ""
            },
            {
              "id": 220970,
              "label": "Nero",
              "abbreviation": ""
            },
            {
              "id": 220963,
              "label": "Bianco",
              "abbreviation": ""
            }
          ]
        }
      ]
    },
    {
      "id": 215041,
      "label": "JC2 52 mm - da 100 pz",
      "name": "JC2 52 mm - da 100 pz",
      "variantImages": [],
      "itemStocks": [
        {
          "id": 220908,
          "label": "140 - ",
          "ean": "TODO",
          "quantity": 100,
          "features": [
            {
              "id": 220907,
              "label": "140",
              "abbreviation": ""
            }
          ]
        },
        {
          "id": 220915,
          "label": "150 - ",
          "ean": "TODO",
          "quantity": 100,
          "features": [
            {
              "id": 220914,
              "label": "150",
              "abbreviation": ""
            }
          ]
        },
        {
          "id": 215042,
          "label": "",
          "ean": "",
          "quantity": 100,
          "features": []
        },
        {
          "id": 220901,
          "label": "130 - ",
          "ean": "TODO",
          "quantity": 100,
          "features": [
            {
              "id": 220900,
              "label": "130",
              "abbreviation": ""
            }
          ]
        },
        {
          "id": 220894,
          "label": "Giallo - ",
          "ean": "TODO",
          "quantity": 100,
          "features": [
            {
              "id": 220893,
              "label": "Giallo",
              "abbreviation": ""
            }
          ]
        }
      ],
      "code": "MOJC2100",
      "amount": 0,
      "discount": 20,
      "finalAmount": 0,
      "freeShipping": false,
      "quantityPlateau": 0,
      "classOfGoods": [
        {
          "id": 565,
          "label": "Colore",
          "features": [
            {
              "id": 220893,
              "label": "Giallo",
              "abbreviation": ""
            }
          ]
        },
        {
          "id": 559,
          "label": "Taglia",
          "features": [
            {
              "id": 220907,
              "label": "140",
              "abbreviation": ""
            },
            {
              "id": 220914,
              "label": "150",
              "abbreviation": ""
            },
            {
              "id": 220900,
              "label": "130",
              "abbreviation": ""
            }
          ]
        }
      ]
    },
    {
      "id": 215006,
      "label": "JC0 44 mm - da 250 pz",
      "name": "JC0 44 mm - da 250 pz",
      "variantImages": [],
      "itemStocks": [
        {
          "id": 223512,
          "label": "Blu - ",
          "ean": "TODO",
          "quantity": 100,
          "features": [
            {
              "id": 223511,
              "label": "Blu",
              "abbreviation": ""
            }
          ]
        },
        {
          "id": 223491,
          "label": "Bianco - ",
          "ean": "TODO",
          "quantity": 100,
          "features": [
            {
              "id": 223490,
              "label": "Bianco",
              "abbreviation": ""
            }
          ]
        },
        {
          "id": 215007,
          "label": "",
          "ean": "",
          "quantity": 100,
          "features": []
        },
        {
          "id": 223498,
          "label": "Rosso - ",
          "ean": "TODO",
          "quantity": 100,
          "features": [
            {
              "id": 223497,
              "label": "Rosso",
              "abbreviation": ""
            }
          ]
        },
        {
          "id": 223505,
          "label": "Nero - ",
          "ean": "TODO",
          "quantity": 100,
          "features": [
            {
              "id": 223504,
              "label": "Nero",
              "abbreviation": ""
            }
          ]
        }
      ],
      "code": "MOJC0250",
      "amount": 0,
      "discount": 20,
      "finalAmount": 0,
      "freeShipping": false,
      "quantityPlateau": 0,
      "classOfGoods": [
        {
          "id": 565,
          "label": "Colore",
          "features": [
            {
              "id": 223511,
              "label": "Blu",
              "abbreviation": ""
            },
            {
              "id": 223504,
              "label": "Nero",
              "abbreviation": ""
            },
            {
              "id": 223490,
              "label": "Bianco",
              "abbreviation": ""
            },
            {
              "id": 223497,
              "label": "Rosso",
              "abbreviation": ""
            }
          ]
        }
      ]
    },
    {
      "id": 215020,
      "label": "JC1 48 mm - da 100 pz",
      "name": "JC1 48 mm - da 100 pz",
      "variantImages": [],
      "itemStocks": [
        {
          "id": 215021,
          "label": "",
          "ean": "",
          "quantity": 100,
          "features": []
        },
        {
          "id": 225248,
          "label": "Rosso - ",
          "ean": "TODO",
          "quantity": 100,
          "features": [
            {
              "id": 225247,
              "label": "Rosso",
              "abbreviation": ""
            }
          ]
        },
        {
          "id": 225297,
          "label": "Grigio - ",
          "ean": "TODO",
          "quantity": 100,
          "features": [
            {
              "id": 225296,
              "label": "Grigio",
              "abbreviation": ""
            }
          ]
        },
        {
          "id": 225290,
          "label": "Giallo - ",
          "ean": "TODO",
          "quantity": 100,
          "features": [
            {
              "id": 225289,
              "label": "Giallo",
              "abbreviation": ""
            }
          ]
        },
        {
          "id": 225276,
          "label": "Bluette - ",
          "ean": "TODO",
          "quantity": 100,
          "features": [
            {
              "id": 225275,
              "label": "Bluette",
              "abbreviation": ""
            }
          ]
        },
        {
          "id": 225241,
          "label": "Bianco - ",
          "ean": "TODO",
          "quantity": 100,
          "features": [
            {
              "id": 225240,
              "label": "Bianco",
              "abbreviation": ""
            }
          ]
        },
        {
          "id": 225283,
          "label": "Bordeaux - ",
          "ean": "TODO",
          "quantity": 100,
          "features": [
            {
              "id": 225282,
              "label": "Bordeaux",
              "abbreviation": ""
            }
          ]
        },
        {
          "id": 225262,
          "label": "Blu - ",
          "ean": "TODO",
          "quantity": 100,
          "features": [
            {
              "id": 225261,
              "label": "Blu",
              "abbreviation": ""
            }
          ]
        },
        {
          "id": 225255,
          "label": "Nero - ",
          "ean": "TODO",
          "quantity": 100,
          "features": [
            {
              "id": 225254,
              "label": "Nero",
              "abbreviation": ""
            }
          ]
        },
        {
          "id": 225269,
          "label": "Verdone - ",
          "ean": "TODO",
          "quantity": 100,
          "features": [
            {
              "id": 225268,
              "label": "Verdone",
              "abbreviation": ""
            }
          ]
        }
      ],
      "code": "MOJC1100",
      "amount": 0,
      "discount": 20,
      "finalAmount": 0,
      "freeShipping": false,
      "quantityPlateau": 0,
      "classOfGoods": [
        {
          "id": 565,
          "label": "Colore",
          "features": [
            {
              "id": 225240,
              "label": "Bianco",
              "abbreviation": ""
            },
            {
              "id": 225289,
              "label": "Giallo",
              "abbreviation": ""
            },
            {
              "id": 225282,
              "label": "Bordeaux",
              "abbreviation": ""
            },
            {
              "id": 225268,
              "label": "Verdone",
              "abbreviation": ""
            },
            {
              "id": 225275,
              "label": "Bluette",
              "abbreviation": ""
            },
            {
              "id": 225247,
              "label": "Rosso",
              "abbreviation": ""
            },
            {
              "id": 225254,
              "label": "Nero",
              "abbreviation": ""
            },
            {
              "id": 225296,
              "label": "Grigio",
              "abbreviation": ""
            },
            {
              "id": 225261,
              "label": "Blu",
              "abbreviation": ""
            }
          ]
        }
      ]
    },
    {
      "id": 215034,
      "label": "JC1 48 mm - da 500 pz",
      "name": "JC1 48 mm - da 500 pz",
      "variantImages": [],
      "itemStocks": [
        {
          "id": 223617,
          "label": "Bianco - ",
          "ean": "TODO",
          "quantity": 100,
          "features": [
            {
              "id": 223616,
              "label": "Bianco",
              "abbreviation": ""
            }
          ]
        },
        {
          "id": 215035,
          "label": "",
          "ean": "",
          "quantity": 100,
          "features": []
        },
        {
          "id": 223659,
          "label": "Giallo - ",
          "ean": "TODO",
          "quantity": 100,
          "features": [
            {
              "id": 223658,
              "label": "Giallo",
              "abbreviation": ""
            }
          ]
        },
        {
          "id": 223645,
          "label": "Bluette - ",
          "ean": "TODO",
          "quantity": 100,
          "features": [
            {
              "id": 223644,
              "label": "Bluette",
              "abbreviation": ""
            }
          ]
        },
        {
          "id": 223624,
          "label": "Rosso - ",
          "ean": "TODO",
          "quantity": 100,
          "features": [
            {
              "id": 223623,
              "label": "Rosso",
              "abbreviation": ""
            }
          ]
        },
        {
          "id": 223638,
          "label": "Verdone - ",
          "ean": "TODO",
          "quantity": 100,
          "features": [
            {
              "id": 223637,
              "label": "Verdone",
              "abbreviation": ""
            }
          ]
        },
        {
          "id": 223652,
          "label": "Bordeaux - ",
          "ean": "TODO",
          "quantity": 100,
          "features": [
            {
              "id": 223651,
              "label": "Bordeaux",
              "abbreviation": ""
            }
          ]
        },
        {
          "id": 223631,
          "label": "Blu - ",
          "ean": "TODO",
          "quantity": 100,
          "features": [
            {
              "id": 223630,
              "label": "Blu",
              "abbreviation": ""
            }
          ]
        }
      ],
      "code": "MOJC1500",
      "amount": 0,
      "discount": 20,
      "finalAmount": 0,
      "freeShipping": false,
      "quantityPlateau": 0,
      "classOfGoods": [
        {
          "id": 565,
          "label": "Colore",
          "features": [
            {
              "id": 223623,
              "label": "Rosso",
              "abbreviation": ""
            },
            {
              "id": 223651,
              "label": "Bordeaux",
              "abbreviation": ""
            },
            {
              "id": 223644,
              "label": "Bluette",
              "abbreviation": ""
            },
            {
              "id": 223637,
              "label": "Verdone",
              "abbreviation": ""
            },
            {
              "id": 223616,
              "label": "Bianco",
              "abbreviation": ""
            },
            {
              "id": 223630,
              "label": "Blu",
              "abbreviation": ""
            },
            {
              "id": 223658,
              "label": "Giallo",
              "abbreviation": ""
            }
          ]
        }
      ]
    },
    {
      "id": 214992,
      "label": "JC00 41 mm - da 500 pz",
      "name": "JC00 41 mm - da 500 pz",
      "variantImages": [],
      "itemStocks": [
        {
          "id": 223736,
          "label": "Giallo - ",
          "ean": "TODO",
          "quantity": 100,
          "features": [
            {
              "id": 223735,
              "label": "Giallo",
              "abbreviation": ""
            }
          ]
        },
        {
          "id": 223729,
          "label": "Bianco - ",
          "ean": "TODO",
          "quantity": 100,
          "features": [
            {
              "id": 223728,
              "label": "Bianco",
              "abbreviation": ""
            }
          ]
        },
        {
          "id": 223743,
          "label": "Nero - ",
          "ean": "TODO",
          "quantity": 100,
          "features": [
            {
              "id": 223742,
              "label": "Nero",
              "abbreviation": ""
            }
          ]
        },
        {
          "id": 214993,
          "label": "",
          "ean": "",
          "quantity": 100,
          "features": []
        },
        {
          "id": 223722,
          "label": "Bordeaux - ",
          "ean": "TODO",
          "quantity": 100,
          "features": [
            {
              "id": 223721,
              "label": "Bordeaux",
              "abbreviation": ""
            }
          ]
        }
      ],
      "code": "MOJC00500",
      "amount": 0,
      "discount": 20,
      "finalAmount": 0,
      "freeShipping": false,
      "quantityPlateau": 0,
      "classOfGoods": [
        {
          "id": 565,
          "label": "Colore",
          "features": [
            {
              "id": 223742,
              "label": "Nero",
              "abbreviation": ""
            },
            {
              "id": 223735,
              "label": "Giallo",
              "abbreviation": ""
            },
            {
              "id": 223728,
              "label": "Bianco",
              "abbreviation": ""
            },
            {
              "id": 223721,
              "label": "Bordeaux",
              "abbreviation": ""
            }
          ]
        }
      ]
    },
    {
      "id": 214985,
      "label": "JC00 40 mm - da 250 pz",
      "name": "JC00 40 mm - da 250 pz",
      "variantImages": [],
      "itemStocks": [
        {
          "id": 214986,
          "label": "",
          "ean": "",
          "quantity": 100,
          "features": []
        }
      ],
      "code": "MOJC00250",
      "amount": 0,
      "discount": 20,
      "finalAmount": 0,
      "freeShipping": false,
      "quantityPlateau": 0,
      "classOfGoods": []
    },
    {
      "id": 214999,
      "label": "JC0 44 mm - da 100 pz",
      "name": "JC0 44 mm - da 100 pz",
      "variantImages": [],
      "itemStocks": [
        {
          "id": 215000,
          "label": "",
          "ean": "",
          "quantity": 100,
          "features": []
        }
      ],
      "code": "MOJC0100",
      "amount": 0,
      "discount": 20,
      "finalAmount": 0,
      "freeShipping": false,
      "quantityPlateau": 0,
      "classOfGoods": []
    },
    {
      "id": 215153,
      "label": "JC8 76 mm - da 250 pz",
      "name": "JC8 76 mm - da 250 pz",
      "variantImages": [],
      "itemStocks": [
        {
          "id": 215154,
          "label": "",
          "ean": "",
          "quantity": 100,
          "features": []
        }
      ],
      "code": "MOJC8250",
      "amount": 0,
      "discount": 20,
      "finalAmount": 0,
      "freeShipping": false,
      "quantityPlateau": 0,
      "classOfGoods": []
    },
    {
      "id": 215013,
      "label": "JC0 44 mm - da 500 pz",
      "name": "JC0 44 mm - da 500 pz",
      "variantImages": [],
      "itemStocks": [
        {
          "id": 215014,
          "label": "",
          "ean": "",
          "quantity": 100,
          "features": []
        }
      ],
      "code": "MOJC0500",
      "amount": 0,
      "discount": 20,
      "finalAmount": 0,
      "freeShipping": false,
      "quantityPlateau": 0,
      "classOfGoods": []
    }
  ],
  "amount": 0,
  "discount": 20,
  "finalAmount": 0
}